%YAML 1.1
%TAG !u! tag:unity3d.com,2011:
--- !u!114 &11400000
MonoBehaviour:
  m_ObjectHideFlags: 0
  m_CorrespondingSourceObject: {fileID: 0}
  m_PrefabInternal: {fileID: 0}
  m_GameObject: {fileID: 0}
  m_Enabled: 1
  m_EditorHideFlags: 0
  m_Script: {fileID: 11500000, guid: 0414577f9c6b244e696949154859a4af, type: 3}
  m_Name: ArKitLogo
  m_EditorClassIdentifier: 
  imageName: arkitlogo
  imageTexture: {fileID: 2800000, guid: fd3ccef2871b74a3d891e06f89fa84b1, type: 3}
  physicalSize: 0.09
